{
    "name": "dirty-talk",
    "version": "1.4.0",
    "factorio_version": "1.1",
    "title": "Dirty talk",
    "author": "ZwerOxotnik",
    "contact": "zweroxotnik@gmail.com, Discord:ZwerOxotnik#7117",
    "homepage": "https://www.reddit.com/r/ZwerOxotnik/",
    "description": "Adds pollution from a player/talk",
    "dependencies": []
}
